{
	"basic":{
		"message": "常规",
		"description": ""
	},
	"ext":{
		"message": "文件扩展名",
		"description": ""
	},
	"app":{
		"message": "程序",
		"description": ""
	},
	"torrent":{
		"message": "BT种子",
		"description": ""
	},
	"cd":{
		"message": "Disk Images",
		"description": ""
	},
	"xls":{
		"message": "Excel 文档",
		"description": ""
	},
	"img":{
		"message": "图片",
		"description": ""
	},
	"jse":{
		"message": "Javascript 文件",
		"description": ""
	},
	"xpi":{
		"message": "Mozilla 扩展",
		"description": ""
	},
	"aud":{
		"message": "音频文件",
		"description": ""
	},
	"pkg":{
		"message": "Package Files",
		"description": ""
	},
	"pdf":{
		"message": "PDF 文档",
		"description": ""
	},
	"ppt":{
		"message": "PPT 文档",
		"description": ""
	},
	"reg":{
		"message": "注册表文件",
		"description": ""
	},
	"txt":{
		"message": "文本文件",
		"description": ""
	},
	"vid":{
		"message": "视频文件",
		"description": ""
	},
	"doc":{
		"message": "Word 文档",
		"description": ""
	},
	"zip":{
		"message": "ZIP 文件",
		"description": ""
	},
	"proto":{
		"message": "网络协议",
		"description": ""
	},
	"chat":{
		"message": "Chat Links",
		"description": ""
	},
	"mail":{
		"message": "E-Mail 链接",
		"description": ""
	},
	"ftp":{
		"message": "FTP 站点",
		"description": ""
	},
	"jsp":{
		"message": "Javascript 链接",
		"description": ""
	},
	"secure":{
		"message": "加密站点",
		"description": ""
	},
	"unsecure":{
		"message": "非加密站点",
		"description": ""
	},
	"file":{
		"message": "Local Files",
		"description": ""
	},
	"ifDifferent":{
		"message": "仅与当前不同时显示",
		"description": ""
	},
	"external":{
		"message": "外部链接",
		"description": ""
	},
	"internal":{
		"message": "内部链接",
		"description": ""
	},
	"domains":{
		"message": "Show domains",
		"description": ""
	},
	"newWindow":{
		"message": "新窗口",
		"description": ""
	},
	"rss":{
		"message": "RSS Feeds",
		"description": ""
	},
	"offline":{
		"message": "Offline",
		"description": ""
	},
	"cached":{
		"message": "Cached",
		"description": ""
	},
	"display":{
		"message": "显示",
		"description": ""
	},
	"large":{
		"message": "使用大图标",
		"description": ""
	},
	"priority":{
		"message": "优先显示顺序",
		"description": ""
	},
	"number":{
		"message": "图标显示数量",
		"description": ""
	},
	"offset":{
		"message": "图标位置",
		"description": ""
	},
	"offcache":{
		"message": "Offline/Cached",
		"description": ""
	},
	"inex":{
		"message": "文件扩展名",
		"description": ""
	},
	"x":{
		"message": "X",
		"description": ""
	},
	"y":{
		"message": "Y",
		"description": ""
	},
	"boxstyle":{
		"message": "Box Style",
		"description": ""
	},
	"background":{
		"message": "背景颜色",
		"description": ""
	},
	"border":{
		"message": "边框颜色",
		"description": ""
	},
	"shadow":{
		"message": "Show Shadow",
		"description": ""
	},
	"width":{
		"message": "宽",
		"description": ""
	},
	"opacity":{
		"message": "透明度",
		"description": ""
	},
	"radius":{
		"message": "Border Radius",
		"description": ""
	},
	"px":{
		"message": "px",
		"description": ""
	},
	"percent":{
		"message": "%",
		"description": ""
	},
	"advanced":{
		"message": "高级",
		"description": ""
	},
	"path":{
		"message": "图标路径",
		"description": ""
	}
}
