{
	"basic":{
		"message": "Podstawowe",
		"description": ""
	},
	"ext":{
		"message": "Rozszerzenia plików",
		"description": ""
	},
	"app":{
		"message": "Aplikacje",
		"description": ""
	},
	"torrent":{
		"message": "BitTorrenty",
		"description": ""
	},
	"cd":{
		"message": "Disk Images",
		"description": ""
	},
	"xls":{
		"message": "Dokumenty Excel",
		"description": ""
	},
	"img":{
		"message": "Obrazki",
		"description": ""
	},
	"jse":{
		"message": "Pliki JavaScript",
		"description": ""
	},
	"xpi":{
		"message": "Dodatki Mozilli",
		"description": ""
	},
	"aud":{
		"message": "Pliki muzyczne",
		"description": ""
	},
	"pkg":{
		"message": "Package Files",
		"description": ""
	},
	"pdf":{
		"message": "Dokumenty PDF",
		"description": ""
	},
	"ppt":{
		"message": "PowerPoint Presentations",
		"description": ""
	},
	"reg":{
		"message": "Wpisy rejestru",
		"description": ""
	},
	"txt":{
		"message": "Dokumenty tekstowe",
		"description": ""
	},
	"vid":{
		"message": "Pliki wideo",
		"description": ""
	},
	"doc":{
		"message": "Dokumenty Word",
		"description": ""
	},
	"zip":{
		"message": "Archiwa Zip",
		"description": ""
	},
	"proto":{
		"message": "Protokoły",
		"description": ""
	},
	"chat":{
		"message": "Chat Links",
		"description": ""
	},
	"mail":{
		"message": "Odnośniki E-mail",
		"description": ""
	},
	"ftp":{
		"message": "Serwery FTP",
		"description": ""
	},
	"jsp":{
		"message": "Odnośniki JavaScript",
		"description": ""
	},
	"secure":{
		"message": "Strony uwierzytelnione",
		"description": ""
	},
	"unsecure":{
		"message": "Strony nieuwierzytelnione",
		"description": ""
	},
	"file":{
		"message": "Local Files",
		"description": ""
	},
	"ifDifferent":{
		"message": "Pokaż tylko przy zmianie.",
		"description": ""
	},
	"external":{
		"message": "Zewnętrzne odnośniki",
		"description": ""
	},
	"internal":{
		"message": "Wewnętrzne odnośniki",
		"description": ""
	},
	"domains":{
		"message": "Show domains",
		"description": ""
	},
	"newWindow":{
		"message": "Nowe okna",
		"description": ""
	},
	"rss":{
		"message": "RSS Feeds",
		"description": ""
	},
	"offline":{
		"message": "Offline",
		"description": ""
	},
	"cached":{
		"message": "Cached",
		"description": ""
	},
	"display":{
		"message": "Wygląd",
		"description": ""
	},
	"large":{
		"message": "Użyj dużych ikon",
		"description": ""
	},
	"priority":{
		"message": "Kolejność wyświetlania",
		"description": ""
	},
	"number":{
		"message": "Number of icons to show",
		"description": ""
	},
	"offset":{
		"message": "Położenie ikon",
		"description": ""
	},
	"offcache":{
		"message": "Offline/Cached",
		"description": ""
	},
	"inex":{
		"message": "Rozszerzenia plików",
		"description": ""
	},
	"x":{
		"message": "X",
		"description": ""
	},
	"y":{
		"message": "Y",
		"description": ""
	},
	"boxstyle":{
		"message": "Box Style",
		"description": ""
	},
	"background":{
		"message": "Kolor tła",
		"description": ""
	},
	"border":{
		"message": "Kolor obwódki",
		"description": ""
	},
	"shadow":{
		"message": "Show Shadow",
		"description": ""
	},
	"width":{
		"message": "Szerokość",
		"description": ""
	},
	"opacity":{
		"message": "Opacity",
		"description": ""
	},
	"radius":{
		"message": "Border Radius",
		"description": ""
	},
	"px":{
		"message": "px",
		"description": ""
	},
	"percent":{
		"message": "%",
		"description": ""
	},
	"advanced":{
		"message": "Zaawansowane",
		"description": ""
	},
	"path":{
		"message": "Ścieżka do ikony",
		"description": ""
	}
}
