{
	"basic":{
		"message": "Основни",
		"description": ""
	},
	"ext":{
		"message": "Файлови разширения",
		"description": ""
	},
	"app":{
		"message": "Програми",
		"description": ""
	},
	"torrent":{
		"message": "Торенти",
		"description": ""
	},
	"cd":{
		"message": "Disk Images",
		"description": ""
	},
	"xls":{
		"message": "Excel файлове",
		"description": ""
	},
	"img":{
		"message": "Изображения",
		"description": ""
	},
	"jse":{
		"message": "Javascript файлове",
		"description": ""
	},
	"xpi":{
		"message": "Разширения на Mozilla",
		"description": ""
	},
	"aud":{
		"message": "Музикални файлове",
		"description": ""
	},
	"pkg":{
		"message": "Package Files",
		"description": ""
	},
	"pdf":{
		"message": "PDF документи",
		"description": ""
	},
	"ppt":{
		"message": "PowerPoint презентации",
		"description": ""
	},
	"reg":{
		"message": "RegEdit файлове",
		"description": ""
	},
	"txt":{
		"message": "Текстови файлове",
		"description": ""
	},
	"vid":{
		"message": "Видео файлове",
		"description": ""
	},
	"doc":{
		"message": "Word файлове",
		"description": ""
	},
	"zip":{
		"message": "ZIP файлове",
		"description": ""
	},
	"proto":{
		"message": "Протоколи",
		"description": ""
	},
	"chat":{
		"message": "Chat Links",
		"description": ""
	},
	"mail":{
		"message": "E-mail връзки",
		"description": ""
	},
	"ftp":{
		"message": "FTP сайтове",
		"description": ""
	},
	"jsp":{
		"message": "Javascript връзки",
		"description": ""
	},
	"secure":{
		"message": "Защитени сайтове",
		"description": ""
	},
	"unsecure":{
		"message": "Незащитени сайтове",
		"description": ""
	},
	"file":{
		"message": "Local Files",
		"description": ""
	},
	"ifDifferent":{
		"message": "Показване само различните",
		"description": ""
	},
	"external":{
		"message": "Външни връзки",
		"description": ""
	},
	"internal":{
		"message": "Вътрешни връзки",
		"description": ""
	},
	"domains":{
		"message": "Show domains",
		"description": ""
	},
	"newWindow":{
		"message": "Нови прозорци",
		"description": ""
	},
	"rss":{
		"message": "RSS Feeds",
		"description": ""
	},
	"offline":{
		"message": "Offline",
		"description": ""
	},
	"cached":{
		"message": "Cached",
		"description": ""
	},
	"display":{
		"message": "Визуални",
		"description": ""
	},
	"large":{
		"message": "Използване на големи икони.",
		"description": ""
	},
	"priority":{
		"message": "Ред за показване",
		"description": ""
	},
	"number":{
		"message": "Брой икони за показване",
		"description": ""
	},
	"offset":{
		"message": "Размер",
		"description": ""
	},
	"offcache":{
		"message": "Offline/Cached",
		"description": ""
	},
	"inex":{
		"message": "Файлови разширения",
		"description": ""
	},
	"x":{
		"message": "Х",
		"description": ""
	},
	"y":{
		"message": "Y",
		"description": ""
	},
	"boxstyle":{
		"message": "Box Style",
		"description": ""
	},
	"background":{
		"message": "Цвят на фона",
		"description": ""
	},
	"border":{
		"message": "Цвят на рамката",
		"description": ""
	},
	"shadow":{
		"message": "Show Shadow",
		"description": ""
	},
	"width":{
		"message": "Широчина",
		"description": ""
	},
	"opacity":{
		"message": "Плътност",
		"description": ""
	},
	"radius":{
		"message": "Border Radius",
		"description": ""
	},
	"px":{
		"message": "px",
		"description": ""
	},
	"percent":{
		"message": "%",
		"description": ""
	},
	"advanced":{
		"message": "Разширени",
		"description": ""
	},
	"path":{
		"message": "Път до иконите",
		"description": ""
	}
}
