{
	"basic":{
		"message": "基本",
		"description": ""
	},
	"ext":{
		"message": "拡張子",
		"description": ""
	},
	"app":{
		"message": "アプリケーション",
		"description": ""
	},
	"torrent":{
		"message": "BitTorrents",
		"description": ""
	},
	"cd":{
		"message": "Disk Images",
		"description": ""
	},
	"xls":{
		"message": "Excel 文書",
		"description": ""
	},
	"img":{
		"message": "画像",
		"description": ""
	},
	"jse":{
		"message": "JavaScript ファイル",
		"description": ""
	},
	"xpi":{
		"message": "Mozilla アドオン",
		"description": ""
	},
	"aud":{
		"message": "音楽ファイル",
		"description": ""
	},
	"pkg":{
		"message": "Package Files",
		"description": ""
	},
	"pdf":{
		"message": "PDF 文書",
		"description": ""
	},
	"ppt":{
		"message": "PowerPoint プレゼンテーション",
		"description": ""
	},
	"reg":{
		"message": "レジストリエディタファイル",
		"description": ""
	},
	"txt":{
		"message": "テキスト文書",
		"description": ""
	},
	"vid":{
		"message": "映像ファイル",
		"description": ""
	},
	"doc":{
		"message": "Word 文書",
		"description": ""
	},
	"zip":{
		"message": "ZIP ファイル",
		"description": ""
	},
	"proto":{
		"message": "プロトコル",
		"description": ""
	},
	"chat":{
		"message": "Chat Links",
		"description": ""
	},
	"mail":{
		"message": "E-Mail リンク",
		"description": ""
	},
	"ftp":{
		"message": "FTP サイト",
		"description": ""
	},
	"jsp":{
		"message": "JavaScript リンク",
		"description": ""
	},
	"secure":{
		"message": "信頼できるサイト",
		"description": ""
	},
	"unsecure":{
		"message": "信頼できないサイト",
		"description": ""
	},
	"file":{
		"message": "Local Files",
		"description": ""
	},
	"ifDifferent":{
		"message": "異なる場合のみ表示。",
		"description": ""
	},
	"external":{
		"message": "外部リンク",
		"description": ""
	},
	"internal":{
		"message": "内部リンク",
		"description": ""
	},
	"domains":{
		"message": "Show domains",
		"description": ""
	},
	"newWindow":{
		"message": "新しいウィンドウ",
		"description": ""
	},
	"rss":{
		"message": "RSS Feeds",
		"description": ""
	},
	"offline":{
		"message": "Offline",
		"description": ""
	},
	"cached":{
		"message": "Cached",
		"description": ""
	},
	"display":{
		"message": "表示",
		"description": ""
	},
	"large":{
		"message": "大きいアイコンを利用する。",
		"description": ""
	},
	"priority":{
		"message": "表示順序",
		"description": ""
	},
	"number":{
		"message": "表示するアイコン数",
		"description": ""
	},
	"offset":{
		"message": "アイコン位置の補正",
		"description": ""
	},
	"offcache":{
		"message": "Offline/Cached",
		"description": ""
	},
	"inex":{
		"message": "拡張子",
		"description": ""
	},
	"x":{
		"message": "横",
		"description": ""
	},
	"y":{
		"message": "縦",
		"description": ""
	},
	"boxstyle":{
		"message": "ボックス表示設定",
		"description": ""
	},
	"background":{
		"message": "背景色",
		"description": ""
	},
	"border":{
		"message": "枠線の色",
		"description": ""
	},
	"shadow":{
		"message": "Show Shadow",
		"description": ""
	},
	"width":{
		"message": "幅",
		"description": ""
	},
	"opacity":{
		"message": "不透明度",
		"description": ""
	},
	"radius":{
		"message": "Border Radius",
		"description": ""
	},
	"px":{
		"message": "px",
		"description": ""
	},
	"percent":{
		"message": "%",
		"description": ""
	},
	"advanced":{
		"message": "詳細",
		"description": ""
	},
	"path":{
		"message": "アイコンのパス",
		"description": ""
	}
}
