{
	"basic":{
		"message": "一般",
		"description": ""
	},
	"ext":{
		"message": "檔案副檔名",
		"description": ""
	},
	"app":{
		"message": "應用程式",
		"description": ""
	},
	"torrent":{
		"message": "BitTorrents",
		"description": ""
	},
	"cd":{
		"message": "Disk Images",
		"description": ""
	},
	"xls":{
		"message": "Excel 文件",
		"description": ""
	},
	"img":{
		"message": "圖片",
		"description": ""
	},
	"jse":{
		"message": "Javascript 檔案",
		"description": ""
	},
	"xpi":{
		"message": "Mozilla 擴充套件",
		"description": ""
	},
	"aud":{
		"message": "音樂檔案",
		"description": ""
	},
	"pkg":{
		"message": "Package Files",
		"description": ""
	},
	"pdf":{
		"message": "PDF 文件",
		"description": ""
	},
	"ppt":{
		"message": "PowerPoint 簡報",
		"description": ""
	},
	"reg":{
		"message": "登錄檔",
		"description": ""
	},
	"txt":{
		"message": "文字檔",
		"description": ""
	},
	"vid":{
		"message": "視訊檔案",
		"description": ""
	},
	"doc":{
		"message": "Word 文件",
		"description": ""
	},
	"zip":{
		"message": "ZIP 壓縮檔",
		"description": ""
	},
	"proto":{
		"message": "網路協定",
		"description": ""
	},
	"chat":{
		"message": "Chat Links",
		"description": ""
	},
	"mail":{
		"message": "E-Mail 鏈結",
		"description": ""
	},
	"ftp":{
		"message": "FTP 站台",
		"description": ""
	},
	"jsp":{
		"message": "Javascript 鏈結",
		"description": ""
	},
	"secure":{
		"message": "加密的網站",
		"description": ""
	},
	"unsecure":{
		"message": "未加密的網站",
		"description": ""
	},
	"file":{
		"message": "Local Files",
		"description": ""
	},
	"ifDifferent":{
		"message": "(如果與目前頁面不同才顯示)",
		"description": ""
	},
	"external":{
		"message": "外部鏈結",
		"description": ""
	},
	"internal":{
		"message": "內部鏈結",
		"description": ""
	},
	"domains":{
		"message": "Show domains",
		"description": ""
	},
	"newWindow":{
		"message": "新視窗",
		"description": ""
	},
	"rss":{
		"message": "RSS Feeds",
		"description": ""
	},
	"offline":{
		"message": "Offline",
		"description": ""
	},
	"cached":{
		"message": "Cached",
		"description": ""
	},
	"display":{
		"message": "顯示",
		"description": ""
	},
	"large":{
		"message": "使用大圖示。",
		"description": ""
	},
	"priority":{
		"message": "顯示順序",
		"description": ""
	},
	"number":{
		"message": "要顯示的圖示數目",
		"description": ""
	},
	"offset":{
		"message": "圖示偏移位置",
		"description": ""
	},
	"offcache":{
		"message": "Offline/Cached",
		"description": ""
	},
	"inex":{
		"message": "檔案副檔名",
		"description": ""
	},
	"x":{
		"message": "X",
		"description": ""
	},
	"y":{
		"message": "Y",
		"description": ""
	},
	"boxstyle":{
		"message": "Box Style",
		"description": ""
	},
	"background":{
		"message": "背景顏色",
		"description": ""
	},
	"border":{
		"message": "邊框顏色",
		"description": ""
	},
	"shadow":{
		"message": "Show Shadow",
		"description": ""
	},
	"width":{
		"message": "寬度",
		"description": ""
	},
	"opacity":{
		"message": "不透明度",
		"description": ""
	},
	"radius":{
		"message": "Border Radius",
		"description": ""
	},
	"px":{
		"message": "px",
		"description": ""
	},
	"percent":{
		"message": "%",
		"description": ""
	},
	"advanced":{
		"message": "進階",
		"description": ""
	},
	"path":{
		"message": "圖示路徑",
		"description": ""
	}
}
