{
	"basic":{
		"message": "Grundeinstellungen",
		"description": ""
	},
	"ext":{
		"message": "Dateiendungen",
		"description": ""
	},
	"app":{
		"message": "Ausführbare Dateien",
		"description": ""
	},
	"torrent":{
		"message": "BitTorrents",
		"description": ""
	},
	"cd":{
		"message": "Disk Images",
		"description": ""
	},
	"xls":{
		"message": "MS-Excel-Dateien",
		"description": ""
	},
	"img":{
		"message": "Grafiken",
		"description": ""
	},
	"jse":{
		"message": "JavaScript-Dateien",
		"description": ""
	},
	"xpi":{
		"message": "Mozilla-Erweiterungen",
		"description": ""
	},
	"aud":{
		"message": "Audiodateien",
		"description": ""
	},
	"pkg":{
		"message": "Package Files",
		"description": ""
	},
	"pdf":{
		"message": "PDF-Dokumente",
		"description": ""
	},
	"ppt":{
		"message": "PowerPoint-Präsentationen",
		"description": ""
	},
	"reg":{
		"message": "Registrierungsdateien",
		"description": ""
	},
	"txt":{
		"message": "Textdateien",
		"description": ""
	},
	"vid":{
		"message": "Videodateien",
		"description": ""
	},
	"doc":{
		"message": "MS-Word-Dateien",
		"description": ""
	},
	"zip":{
		"message": "ZIP/RAR-Archive",
		"description": ""
	},
	"proto":{
		"message": "Protokolle",
		"description": ""
	},
	"chat":{
		"message": "Chat Links",
		"description": ""
	},
	"mail":{
		"message": "E-Mail-Verknüpfungen",
		"description": ""
	},
	"ftp":{
		"message": "FTP-Verknüpfungen",
		"description": ""
	},
	"jsp":{
		"message": "JavaScript-Verknüpfungen",
		"description": ""
	},
	"secure":{
		"message": "Gesicherte Websites",
		"description": ""
	},
	"unsecure":{
		"message": "Ungesicherte Websites",
		"description": ""
	},
	"file":{
		"message": "Local Files",
		"description": ""
	},
	"ifDifferent":{
		"message": "Nur bei Änderung anzeigen",
		"description": ""
	},
	"external":{
		"message": "Externer Link",
		"description": ""
	},
	"internal":{
		"message": "Interner Link",
		"description": ""
	},
	"domains":{
		"message": "Show domains",
		"description": ""
	},
	"newWindow":{
		"message": "Neues Fenster",
		"description": ""
	},
	"rss":{
		"message": "RSS Feeds",
		"description": ""
	},
	"offline":{
		"message": "Offline",
		"description": ""
	},
	"cached":{
		"message": "Cached",
		"description": ""
	},
	"display":{
		"message": "Anzeige",
		"description": ""
	},
	"large":{
		"message": "Große Symbole anzeigen (Änderungen werden erst nach Browserneustart wirksam)",
		"description": ""
	},
	"priority":{
		"message": "Anzeigepriorität",
		"description": ""
	},
	"number":{
		"message": "Anzahl der Symbole",
		"description": ""
	},
	"offset":{
		"message": "Symbolversatz (Pixel)",
		"description": ""
	},
	"offcache":{
		"message": "Offline/Cached",
		"description": ""
	},
	"inex":{
		"message": "Dateiendungen",
		"description": ""
	},
	"x":{
		"message": "X",
		"description": ""
	},
	"y":{
		"message": "Y",
		"description": ""
	},
	"boxstyle":{
		"message": "Box-Stil",
		"description": ""
	},
	"background":{
		"message": "Hintergrundfarbe",
		"description": ""
	},
	"border":{
		"message": "Umrandungsfarbe",
		"description": ""
	},
	"shadow":{
		"message": "Show Shadow",
		"description": ""
	},
	"width":{
		"message": "Randbreite",
		"description": ""
	},
	"opacity":{
		"message": "Transparenz",
		"description": ""
	},
	"radius":{
		"message": "Border Radius",
		"description": ""
	},
	"px":{
		"message": "px",
		"description": ""
	},
	"percent":{
		"message": "%",
		"description": ""
	},
	"advanced":{
		"message": "Erweitert",
		"description": ""
	},
	"path":{
		"message": "Symbolpfad",
		"description": ""
	}
}
